clk_divider/simulation/modelsim/dump.vcd
$date
	Sun Jan 31 02:43:29 2021
$end
$version
	ModelSim Version 2020.1
$end
$timescale
	1ps
$end

$scope module test_divider $end
$var reg 1 ! t_clk $end
$var wire 1 " t_clk1 $end

$scope module dut $end
$var wire 1 # clk $end
$var reg 1 $ clk1 $end
$var reg 1 % temp $end
$var reg 26 & count [25:0] $end
$upscope $end
$upscope $end
$enddefinitions $end
#0
$dumpvars
0!
x$
0%
b0 &
x"
0#
$end
#10000
1!
1#
b1 &
#20000
0!
0#
#30000
1!
1#
b10 &
#40000
0!
0#
#50000
1!
1#
b11 &
#60000
0!
0#
#70000
1!
1#
b100 &
#80000
0!
0#
#90000
1!
1#
b101 &
#100000
0!
0#
#110000
1!
1#
b110 &
#120000
0!
0#
#130000
1!
1#
b111 &
#140000
0!
0#
#150000
1!
1#
b1000 &
#160000
0!
0#
#170000
1!
1#
b1001 &
#180000
0!
0#
#190000
1!
1#
b1010 &
#200000
0!
0#
#210000
1!
1#
b1011 &
#220000
0!
0#
#230000
1!
1#
b1100 &
#240000
0!
0#
#250000
1!
1#
b1101 &
#260000
0!
0#
#270000
1!
1#
b1110 &
#280000
0!
0#
#290000
1!
1#
b1111 &
#300000
0!
0#
#310000
1!
1#
b10000 &
#320000
0!
0#
#330000
1!
1#
b10001 &
#340000
0!
0#
#350000
1!
1#
b10010 &
#360000
0!
0#
#370000
1!
1#
b10011 &
#380000
0!
0#
#390000
1!
1#
b10100 &
#400000
0!
0#
#410000
1!
1#
b10101 &
#420000
0!
0#
#430000
1!
1#
b10110 &
#440000
0!
0#
#450000
1!
1#
b10111 &
#460000
0!
0#
#470000
1!
1#
b11000 &
#480000
0!
0#
#490000
1!
1#
b11001 &
#500000
0!
0#
#510000
1!
1#
b11010 &
#520000
0!
0#
#530000
1!
1#
b11011 &
#540000
0!
0#
#550000
1!
1#
b11100 &
#560000
0!
0#
#570000
1!
1#
b11101 &
#580000
0!
0#
#590000
1!
1#
b11110 &
#600000
0!
0#
#610000
1!
1#
b11111 &
#620000
0!
0#
#630000
1!
1#
b100000 &
#640000
0!
0#
#650000
1!
1#
b100001 &
#660000
0!
0#
#670000
1!
1#
b100010 &
#680000
0!
0#
#690000
1!
1#
b100011 &
#700000
0!
0#
#710000
1!
1#
b100100 &
#720000
0!
0#
#730000
1!
1#
b100101 &
#740000
0!
0#
#750000
1!
1#
b100110 &
#760000
0!
0#
#770000
1!
1#
b100111 &
#780000
0!
0#
#790000
1!
1#
b101000 &
#800000
0!
0#
#810000
1!
1#
b101001 &
#820000
0!
0#
#830000
1!
1#
b101010 &
#840000
0!
0#
#850000
1!
1#
b101011 &
#860000
0!
0#
#870000
1!
1#
b101100 &
#880000
0!
0#
#890000
1!
1#
b101101 &
#900000
0!
0#
#910000
1!
1#
b101110 &
#920000
0!
0#
#930000
1!
1#
b101111 &
#940000
0!
0#
#950000
1!
1#
b110000 &
#960000
0!
0#
#970000
1!
1#
b110001 &
#980000
0!
0#
#990000
1!
1#
b110010 &
#1000000
0!
0#
0
1!
1$
b1001 '
#1040000
0!
0$
#1050000
1!
1$
b1010 '
#1060000
0!
0$
#1070000
1!
1$
b1011 '
#1080000
0!
0$
#1090000
1!
1$
b1100 '
#1100000
0!
0$
#1110000
1!
1$
b1101 '
#1120000
0!
0$
#1130000
1!
1$
b0 '
0&
0"
#1140000
0!
0$
#1150000
1!
1$
b1 '
#1160000
0!
0$
#1170000
1!
1$
b10 '
#1180000
0!
0$
#1190000
1!
1$
b11 '
#1200000
0!
0$
#1210000
1!
1$
b100 '
#1220000
0!
0$
#1230000
1!
1$
b101 '
#1240000
0!
0$
#1250000
1!
1$
b110 '
#1260000
0!
0$
#1270000
1!
1$
b111 '
#1280000
0!
0$
#1290000
1!
1$
b1000 '
#1300000
0!
0$
#1310000
1!
1$
b1001 '
#1320000
0!
0$
#1330000
1!
1$
b1010 '
#1340000
0!
0$
#1350000
1!
1$
b1011 '
#1360000
0!
0$
#1370000
1!
1$
b1100 '
#1380000
0!
0$
#1390000
1!
1$
b1101 '
#1400000
0!
0$
#1410000
1!
1$
b0 '
1&
1"
#1420000
0!
0$
#1430000
1!
1$
b1 '
#1440000
0!
0$
#1450000
1!
1$
b10 '
#1460000
0!
0$
#1470000
1!
1$
b11 '
#1480000
0!
0$
#1490000
1!
1$
b100 '
#1500000
0!
0$
#1510000
1!
1$
b101 '
#1520000
0!
0$
#1530000
1!
1$
b110 '
#1540000
0!
0$
#1550000
1!
1$
b111 '
#1560000
0!
0$
#1570000
1!
1$
b1000 '
#1580000
0!
0$
#1590000
1!
1$
b1001 '
#1600000
0!
0$
#1610000
1!
1$
b1010 '
#1620000
0!
0$
#1630000
1!
1$
b1011 '
#1640000
0!
0$
#1650000
1!
1$
b1100 '
#1660000
0!
0$
#1670000
1!
1$
b1101 '
#1680000
0!
0$
#1690000
1!
1$
b0 '
0&
0"
#1700000
0!
0$
#1710000
1!
1$
b1 '
#1720000
0!
0$
#1730000
1!
1$
b10 '
#1740000
0!
0$
#1750000
1!
1$
b11 '
#1760000
0!
0$
#1770000
1!
1$
b100 '
#1780000
0!
0$
#1790000
1!
1$
b101 '
#1800000
0!
0$
#1810000
1!
1$
b110 '
#1820000
0!
0$
#1830000
1!
1$
b111 '
#1840000
0!
0$
#1850000
1!
1$
b1000 '
#1860000
0!
0$
#1870000
1!
1$
b1001 '
#1880000
0!
0$
#1890000
1!
1$
b1010 '
#1900000
0!
0$
#1910000
1!
1$
b1011 '
#1920000
0!
0$
#1930000
1!
1$
b1100 '
#1940000
0!
0$
#1950000
1!
1$
b1101 '
#1960000
0!
0$
#1970000
1!
1$
b0 '
1&
1"
#1980000
0!
0$
#1990000
1!
1$
b1 '
#2000000
0!
0$
#2010000
1!
1$
b10 '
#2020000
0!
0$
#2030000
1!
1$
b11 '
#2040000
0!
0$
#2050000
1!
1$
b100 '
#2060000
0!
0$
#2070000
1!
1$
b101 '
#2080000
0!
0$
#2090000
1!
1$
b110 '
#2100000
0!
0$
#2110000
1!
1$
b111 '
#2120000
0!
0$
#2130000
1!
1$
b1000 '
#2140000
0!
0$
#2150000
1!
1$
b1001 '
#2160000
0!
0$
#2170000
1!
1$
b1010 '
#2180000
0!
0$
#2190000
1!
1$
b1011 '
#2200000
0!
0$
#2210000
1!
1$
b1100 '
#2220000
0!
0$
#2230000
1!
1$
b1101 '
#2240000
0!
0$
#2250000
1!
1$
b0 '
0&
0"
#2260000
0!
0$
#2270000
1!
1$
b1 '
#2280000
0!
0$
#2290000
1!
1$
b10 '
#2300000
0!
0$
#2310000
1!
1$
b11 '
#2320000
0!
0$
#2330000
1!
1$
b100 '
#2340000
0!
0$
#2350000
1!
1$
b101 '
#2360000
0!
0$
#2370000
1!
1$
b110 '
#2380000
0!
0$
#2390000
1!
1$
b111 '
#2400000
0!
0$
#2410000
1!
1$
b1000 '
#2420000
0!
0$
#2430000
1!
1$
b1001 '
#2440000
0!
0$
#2450000
1!
1$
b1010 '
#2460000
0!
0$
#2470000
1!
1$
b1011 '
#2480000
0!
0$
#2490000
1!
1$
b1100 '
#2500000
0!
0$
#2510000
1!
1$
b1101 '
#2520000
0!
0$
#2530000
1!
1$
b0 '
1&
1"
#2540000
0!
0$
#2550000
1!
1$
b1 '
#2560000
0!
0$
#2570000
1!
1$
b10 '
#2580000
0!
0$
#2590000
1!
1$
b11 '
#2600000
0!
0$
#2610000
1!
1$
b100 '
#2620000
0!
0$
#2630000
1!
1$
b101 '
#2640000
0!
0$
#2650000
1!
1$
b110 '
#2660000
0!
0$
#2670000
1!
1$
b111 '
#2680000
0!
0$
#2690000
1!
1$
b1000 '
#2700000
0!
0$
#2710000
1!
1$
b1001 '
#2720000
0!
0$
#2730000
1!
1$
b1010 '
#2740000
0!
0$
#2750000
1!
1$
b1011 '
#2760000
0!
0$
#2770000
1!
1$
b1100 '
#2780000
0!
0$
#2790000
1!
1$
b1101 '
#2800000
0!
0$
#2810000
1!
1$
b0 '
0&
0"
#2820000
0!
0$
#2830000
1!
1$
b1 '
#2840000
0!
0$
#2850000
1!
1$
b10 '
#2860000
0!
0$
#2870000
1!
1$
b11 '
#2880000
0!
0$
#2890000
1!
1$
b100 '
#2900000
0!
0$
#2910000
1!
1$
b101 '
#2920000
0!
0$
#2930000
1!
1$
b110 '
#2940000
0!
0$
#2950000
1!
1$
b111 '
#2960000
0!
0$
#2970000
1!
1$
b1000 '
#2980000
0!
0$
#2990000
1!
1$
b1001 '
#3000000
0!
0$
#3010000
1!
1$
b1010 '
#3020000
0!
0$
#3030000
1!
1$
b1011 '
#3040000
0!
0$
#3050000
1!
1$
b1100 '
#3060000
0!
0$
#3070000
1!
1$
b1101 '
#3080000
0!
0$
#3090000
1!
1$
b0 '
1&
1"
#3100000
0!
0$
#3110000
1!
1$
b1 '
#3120000
0!
0$
#3130000
1!
1$
b10 '
#3140000
0!
0$
#3150000
1!
1$
b11 '
#3160000
0!
0$
#3170000
1!
1$
b100 '
#3180000
0!
0$
#3190000
1!
1$
b101 '
#3200000
0!
0$
#3210000
1!
1$
b110 '
#3220000
0!
0$
#3230000
1!
1$
b111 '
#3240000
0!
0$
#3250000
1!
1$
b1000 '
#3260000
0!
0$
#3270000
1!
1$
b1001 '
#3280000
0!
0$
#3290000
1!
1$
b1010 '
#3300000
0!
0$
#3310000
1!
1$
b1011 '
#3320000
0!
0$
#3330000
1!
1$
b1100 '
#3340000
0!
0$
#3350000
1!
1$
b1101 '
#3360000
0!
0$
#3370000
1!
1$
b0 '
0&
0"
#3380000
0!
0$
#3390000
1!
1$
b1 '
#3400000
0!
0$
#3410000
1!
1$
b10 '
#3420000
0!
0$
#3430000
1!
1$
b11 '
#3440000
0!
0$
#3450000
1!
1$
b100 '
#3460000
0!
0$
#3470000
1!
1$
b101 '
#3480000
0!
0$
#3490000
1!
1$
b110 '
#3500000
0!
0$
#3510000
1!
1$
b111 '
#3520000
0!
0$
#3530000
1!
1$
b1000 '
#3540000
0!
0$
#3550000
1!
1$
b1001 '
#3560000
0!
0$
#3570000
1!
1$
b1010 '
#3580000
0!
0$
#3590000
1!
1$
b1011 '
#3600000
0!
0$
#3610000
1!
1$
b1100 '
#3620000
0!
0$
#3630000
1!
1$
b1101 '
#3640000
0!
0$
#3650000
1!
1$
b0 '
1&
1"
#3660000
0!
0$
#3670000
1!
1$
b1 '
#3680000
0!
0$
#3690000
1!
1$
b10 '
#3700000
0!
0$
#3710000
1!
1$
b11 '
#3720000
0!
0$
#3730000
1!
1$
b100 '
#3740000
0!
0$
#3750000
1!
1$
b101 '
#3760000
0!
0$
#3770000
1!
1$
b110 '
#3780000
0!
0$
#3790000
1!
1$
b111 '
#3800000
0!
0$
#3810000
1!
1$
b1000 '
#3820000
0!
0$
#3830000
1!
1$
b1001 '
#3840000
0!
0$
#3850000
1!
1$
b1010 '
#3860000
0!
0$
#3870000
1!
1$
b1011 '
#3880000
0!
0$
#3890000
1!
1$
b1100 '
#3900000
0!
0$
#3910000
1!
1$
b1101 '
#3920000
0!
0$
#3930000
1!
1$
b0 '
0&
0"
#3940000
0!
0$
#3950000
1!
1$
b1 '
#3960000
0!
0$
#3970000
1!
1$
b10 '
#3980000
0!
0$
#3990000
1!
1$
b11 '
#4000000
0!
0$
#4010000
1!
1$
b100 '
#4020000
0!
0$
#4030000
1!
1$
b101 '
#4040000
0!
0$
#4050000
1!
1$
b110 '
#4060000
0!
0$
#4070000
1!
1$
b111 '
#4080000
0!
0$
#4090000
1!
1$
b1000 '
#4100000
0!
0$
#4110000
1!
1$
b1001 '
#4120000
0!
0$
#4130000
1!
1$
b1010 '
#4140000
0!
0$
#4150000
1!
1$
b1011 '
#4160000
0!
0$
#4170000
1!
1$
b1100 '
#4180000
0!
0$
#4190000
1!
1$
b1101 '
#4200000
0!
0$
#4210000
1!
1$
b0 '
1&
1"
#4220000
0!
0$
#4230000
1!
1$
b1 '
#4240000
0!
0$
#4250000
1!
1$
b10 '
#4260000
0!
0$
#4270000
1!
1$
b11 '
#4280000
0!
0$
#4290000
1!
1$
b100 '
#4300000
0!
0$
#4310000
1!
1$
b101 '
#4320000
0!
0$
#4330000
1!
1$
b110 '
#4340000
0!
0$
#4350000
1!
1$
b111 '
#4360000
0!
0$
#4370000
1!
1$
b1000 '
#4380000
0!
0$
#4390000
1!
1$
b1001 '
#4400000
0!
0$
#4410000
1!
1$
b1010 '
#4420000
0!
0$
#4430000
1!
1$
b1011 '
#4440000
0!
0$
#4450000
1!
1$
b1100 '
#4460000
0!
0$
#4470000
1!
1$
b1101 '
#4480000
0!
0$
#4490000
1!
1$
b0 '
0&
0"
#4500000
0!
0$
#4510000
1!
1$
b1 '
#4520000
0!
0$
#4530000
1!
1$
b10 '
#4540000
0!
0$
#4550000
1!
1$
b11 '
#4560000
0!
0$
#4570000
1!
1$
b100 '
#4580000
0!
0$
#4590000
1!
1$
b101 '
#4600000
0!
0$
#4610000
1!
1$
b110 '
#4620000
0!
0$
#4630000
1!
1$
b111 '
#4640000
0!
0$
#4650000
1!
1$
b1000 '
#4660000
0!
0$
#4670000
1!
1$
b1001 '
#4680000
0!
0$
#4690000
1!
1$
b1010 '
#4700000
0!
0$
#4710000
1!
1$
b1011 '
#4720000
0!
0$
#4730000
1!
1$
b1100 '
#4740000
0!
0$
#4750000
1!
1$
b1101 '
#4760000
0!
0$
#4770000
1!
1$
b0 '
1&
1"
#4780000
0!
0$
#4790000
1!
1$
b1 '
#4800000
0!
0$
#4810000
1!
1$
b10 '
#4820000
0!
0$
#4830000
1!
1$
b11 '
#4840000
0!
0$
#4850000
1!
1$
b100 '
#4860000
0!
0$
#4870000
1!
1$
b101 '
#4880000
0!
0$
#4890000
1!
1$
b110 '
#4900000
0!
0$
#4910000
1!
1$
b111 '
#4920000
0!
0$
#4930000
1!
1$
b1000 '
#4940000
0!
0$
#4950000
1!
1$
b1001 '
#4960000
0!
0$
#4970000
1!
1$
b1010 '
#4980000
0!
0$
#4990000
1!
1$
b1011 '
#5000000
0!
0$
#5010000
1!
1$
b1100 '
#5020000
0!
0$
#5030000
1!
1$
b1101 '
#5040000
0!
0$
#5050000
1!
1$
b0 '
0&
0"
#5060000
0!
0$
#5070000
1!
1$
b1 '
#5080000
0!
0$
#5090000
1!
1$
b10 '
#5100000
0!
0$
#5110000
1!
1$
b11 '
#5120000
0!
0$
#5130000
1!
1$
b100 '
#5140000
0!
0$
#5150000
1!
1$
b101 '
#5160000
0!
0$
#5170000
1!
1$
b110 '
#5180000
0!
0$
#5190000
1!
1$
b111 '
#5200000
0!
0$
#5210000
1!
1$
b1000 '
#5220000
0!
0$
#5230000
1!
1$
b1001 '
#5240000
0!
0$
#5250000
1!
1$
b1010 '
#5260000
0!
0$
#5270000
1!
1$
b1011 '
#5280000
0!
0$
#5290000
1!
1$
b1100 '
#5300000
0!
0$
#5310000
1!
1$
b1101 '
#5320000
0!
0$
#5330000
1!
1$
b0 '
1&
1"
#5340000
0!
0$
#5350000
1!
1$
b1 '
#5360000
0!
0$
#5370000
1!
1$
b10 '
#5380000
0!
0$
#5390000
1!
1$
b11 '
#5400000
0!
0$
#5410000
1!
1$
b100 '
#5420000
0!
0$
#5430000
1!
1$
b101 '
#5440000
0!
0$
#5450000
1!
1$
b110 '
#5460000
0!
0$
#5470000
1!
1$
b111 '
#5480000
0!
0$
#5490000
1!
1$
b1000 '
#5500000
0!
0$
#5510000
1!
1$
b1001 '
#5520000
0!
0$
#5530000
1!
1$
b1010 '
#5540000
0!
0$
#5550000
1!
1$
b1011 '
#5560000
0!
0$
#5570000
1!
1$
b1100 '
#5580000
0!
0$
#5590000
1!
1$
b1101 '
#5600000
0!
0$
#5610000
1!
1$
b0 '
0&
0"
#5620000
0!
0$
#5630000
1!
1$
b1 '
#5640000
0!
0$
#5650000
1!
1$
b10 '
#5660000
0!
0$
#5670000
1!
1$
b11 '
#5680000
0!
0$
#5690000
1!
1$
b100 '
#5700000
0!
0$
#5710000
1!
1$
b101 '
#5720000
0!
0$
#5730000
1!
1$
b110 '
#5740000
0!
0$
#5750000
1!
1$
b111 '
#5760000
0!
0$
#5770000
1!
1$
b1000 '
#5780000
0!
0$
#5790000
1!
1$
b1001 '
#5800000
0!
0$
#5810000
1!
1$
b1010 '
#5820000
0!
0$
#5830000
1!
1$
b1011 '
#5840000
0!
0$
#5850000
1!
1$
b1100 '
#5860000
0!
0$
#5870000
1!
1$
b1101 '
#5880000
0!
0$
#5890000
1!
1$
b0 '
1&
1"
#5900000
0!
0$
#5910000
1!
1$
b1 '
#5920000
0!
0$
#5930000
1!
1$
b10 '
#5940000
0!
0$
#5950000
1!
1$
b11 '
#5960000
0!
0$
#5970000
1!
1$
b100 '
#5980000
0!
0$
#5990000
1!
1$
b101 '
#6000000
0!
0$
#6010000
1!
1$
b110 '
#6020000
0!
0$
#6030000
1!
1$
b111 '
#6040000
0!
0$
#6050000
1!
1$
b1000 '
#6060000
0!
0$
#6070000
1!
1$
b1001 '
#6080000
0!
0$
#6090000
1!
1$
b1010 '
#6100000
0!
0$
#6110000
1!
1$
b1011 '
#6120000
0!
0$
#6130000
1!
1$
b1100 '
#6140000
0!
0$
#6150000
1!
1$
b1101 '
#6160000
0!
0$
#6170000
1!
1$
b0 '
0&
0"
#6180000
0!
0$
#6190000
1!
1$
b1 '
#6200000
0!
0$
#6210000
1!
1$
b10 '
#6220000
0!
0$
#6230000
1!
1$
b11 '
#6240000
0!
0$
#6250000
1!
1$
b100 '
#6260000
0!
0$
#6270000
1!
1$
b101 '
#6280000
0!
0$
#6290000
1!
1$
b110 '
#6300000
0!
0$
#6310000
1!
1$
b111 '
#6320000
0!
0$
#6330000
1!
1$
b1000 '
#6340000
0!
0$
#6350000
1!
1$
b1001 '
#6360000
0!
0$
#6370000
1!
1$
b1010 '
#6380000
0!
0$
#6390000
1!
1$
b1011 '
#6400000
0!
0$
#6410000
1!
1$
b1100 '
#6420000
0!
0$
#6430000
1!
1$
b1101 '
#6440000
0!
0$
#6450000
1!
1$
b0 '
1&
1"
#6460000
0!
0$
#6470000
1!
1$
b1 '
#6480000
0!
0$
#6490000
1!
1$
b10 '
#6500000
0!
0$
#6510000
1!
1$
b11 '
#6520000
0!
0$
#6530000
1!
1$
b100 '
#6540000
0!
0$
#6550000
1!
1$
b101 '
#6560000
0!
0$
#6570000
1!
1$
b110 '
#6580000
0!
0$
#6590000
1!
1$
b111 '
#6600000
0!
0$
#6610000
1!
1$
b1000 '
#6620000
0!
0$
#6630000
1!
1$
b1001 '
#6640000
0!
0$
#6650000
1!
1$
b1010 '
#6660000
0!
0$
#6670000
1!
1$
b1011 '
#6680000
0!
0$
#6690000
1!
1$
b1100 '
#6700000
0!
0$
#6710000
1!
1$
b1101 '
#6720000
0!
0$
#6730000
1!
1$
b0 '
0&
0"
#6740000
0!
0$
#6750000
1!
1$
b1 '
#6760000
0!
0$
#6770000
1!
1$
b10 '
#6780000
0!
0$
#6790000
1!
1$
b11 '
#6800000
0!
0$
#6810000
1!
1$
b100 '
#6820000
0!
0$
#6830000
1!
1$
b101 '
#6840000
0!
0$
#6850000
1!
1$
b110 '
#6860000
0!
0$
#6870000
1!
1$
b111 '
#6880000
0!
0$
#6890000
1!
1$
b1000 '
#6900000
0!
0$
#6910000
1!
1$
b1001 '
#6920000
0!
0$
#6930000
1!
1$
b1010 '
#6940000
0!
0$
#6950000
1!
1$
b1011 '
#6960000
0!
0$
#6970000
1!
1$
b1100 '
#6980000
0!
0$
#6990000
1!
1$
b1101 '
#7000000
0!
0$
#7010000
1!
1$
b0 '
1&
1"
#7020000
0!
0$
#7030000
1!
1$
b1 '
#7040000
0!
0$
#7050000
1!
1$
b10 '
#7060000
0!
0$
#7070000
1!
1$
b11 '
#7080000
0!
0$
#7090000
1!
1$
b100 '
#7100000
0!
0$
#7110000
1!
1$
b101 '
#7120000
0!
0$
#7130000
1!
1$
b110 '
#7140000
0!
0$
#7150000
1!
1$
b111 '
#7160000
0!
0$
#7170000
1!
1$
b1000 '
#7180000
0!
0$
#7190000
1!
1$
b1001 '
#7200000
0!
0$
#7210000
1!
1$
b1010 '
#7220000
0!
0$
#7230000
1!
1$
b1011 '
#7240000
0!
0$
#7250000
1!
1$
b1100 '
#7260000
0!
0$
#7270000
1!
1$
b1101 '
#7280000
0!
0$
#7290000
1!
1$
b0 '
0&
0"
#7300000
0!
0$
#7310000
1!
1$
b1 '
#7320000
0!
0$
#7330000
1!
1$
b10 '
#7340000
0!
0$
#7350000
1!
1$
b11 '
#7360000
0!
0$
#7370000
1!
1$
b100 '
#7380000
0!
0$
#7390000
1!
1$
b101 '
#7400000
0!
0$
#7410000
1!
1$
b110 '
#7420000
0!
0$
#7430000
1!
1$
b111 '
#7440000
0!
0$
#7450000
1!
1$
b1000 '
#7460000
0!
0$
#7470000
1!
1$
b1001 '
#7480000
0!
0$
#7490000
1!
1$
b1010 '
#7500000
0!
0$
#7510000
1!
1$
b1011 '
#7520000
0!
0$
#7530000
1!
1$
b1100 '
#7540000
0!
0$
#7550000
1!
1$
b1101 '
#7560000
0!
0$
#7570000
1!
1$
b0 '
1&
1"
#7580000
0!
0$
#7590000
1!
1$
b1 '
#7600000
0!
0$
#7610000
1!
1$
b10 '
#7620000
0!
0$
#7630000
1!
1$
b11 '
#7640000
0!
0$
#7650000
1!
1$
b100 '
#7660000
0!
0$
#7670000
1!
1$
b101 '
#7680000
0!
0$
#7690000
1!
1$
b110 '
#7700000
0!
0$
#7710000
1!
1$
b111 '
#7720000
0!
0$
#7730000
1!
1$
b1000 '
#7740000
0!
0$
#7750000
1!
1$
b1001 '
#7760000
0!
0$
#7770000
1!
1$
b1010 '
#7780000
0!
0$
#7790000
1!
1$
b1011 '
#7800000
0!
0$
#7810000
1!
1$
b1100 '
#7820000
0!
0$
#7830000
1!
1$
b1101 '
#7840000
0!
0$
#7850000
1!
1$
b0 '
0&
0"
#7860000
0!
0$
#7870000
1!
1$
b1 '
#7880000
0!
0$
#7890000
1!
1$
b10 '
#7900000
0!
0$
#7910000
1!
1$
b11 '
#7920000
0!
0$
#7930000
1!
1$
b100 '
#7940000
0!
0$
#7950000
1!
1$
b101 '
#7960000
0!
0$
#7970000
1!
1$
b110 '
#7980000
0!
0$
#7990000
1!
1$
b111 '
#8000000
0!
0$
#8010000
1!
1$
b1000 '
#8020000
0!
0$
#8030000
1!
1$
b1001 '
#8040000
0!
0$
#8050000
1!
1$
b1010 '
#8060000
0!
0$
#8070000
1!
1$
b1011 '
#8080000
0!
0$
#8090000
1!
1$
b1100 '
#8100000
0!
0$
#8110000
1!
1$
b1101 '
#8120000
0!
0$
#8130000
1!
1$
b0 '
1&
1"
#8140000
0!
0$
#8150000
1!
1$
b1 '
#8160000
0!
0$
#8170000
1!
1$
b10 '
#8180000
0!
0$
#8190000
1!
1$
b11 '
#8200000
0!
0$
#8210000
1!
1$
b100 '
#8220000
0!
0$
#8230000
1!
1$
b101 '
#8240000
0!
0$
#8250000
1!
1$
b110 '
#8260000
0!
0$
#8270000
1!
1$
b111 '
#8280000
0!
0$
#8290000
1!
1$
b1000 '
#8300000
0!
0$
#8310000
1!
1$
b1001 '
#8320000
0!
0$
#8330000
1!
1$
b1010 '
#8340000
0!
0$
#8350000
1!
1$
b1011 '
#8360000
0!
0$
#8370000
1!
1$
b1100 '
#8380000
0!
0$
#8390000
1!
1$
b1101 '
#8400000
0!
0$
#8410000
1!
1$
b0 '
0&
0"
#8420000
0!
0$
#8430000
1!
1$
b1 '
#8440000
0!
0$
#8450000
1!
1$
b10 '
#8460000
0!
0$
#8470000
1!
1$
b11 '
#8480000
0!
0$
#8490000
1!
1$
b100 '
#8500000
0!
0$
#8510000
1!
1$
b101 '
#8520000
0!
0$
#8530000
1!
1$
b110 '
#8540000
0!
0$
#8550000
1!
1$
b111 '
#8560000
0!
0$
#8570000
1!
1$
b1000 '
#8580000
0!
0$
#8590000
1!
1$
b1001 '
#8600000
0!
0$
#8610000
1!
1$
b1010 '
#8620000
0!
0$
#8630000
1!
1$
b1011 '
#8640000
0!
0$
#8650000
1!
1$
b1100 '
#8660000
0!
0$
#8670000
1!
1$
b1101 '
#8680000
0!
0$
#8690000
1!
1$
b0 '
1&
1"
#8700000
0!
0$
#8710000
1!
1$
b1 '
#8720000
0!
0$
#8730000
1!
1$
b10 '
#8740000
0!
0$
#8750000
1!
1$
b11 '
#8760000
0!
0$
#8770000
1!
1$
b100 '
#8780000
0!
0$
#8790000
1!
1$
b101 '
#8800000
0!
0$
#8810000
1!
1$
b110 '
#8820000
0!
0$
#8830000
1!
1$
b111 '
#8840000
0!
0$
#8850000
1!
1$
b1000 '
#8860000
0!
0$
#8870000
1!
1$
b1001 '
#8880000
0!
0$
#8890000
1!
1$
b1010 '
#8900000
0!
0$
#8910000
1!
1$
b1011 '
#8920000
0!
0$
#8930000
1!
1$
b1100 '
#8940000
0!
0$
#8950000
1!
1$
b1101 '
#8960000
0!
0$
#8970000
1!
1$
b0 '
0&
0"
#8980000
0!
0$
#8990000
1!
1$
b1 '
#9000000
0!
0$
#9010000
1!
1$
b10 '
#9020000
0!
0$
#9030000
1!
1$
b11 '
#9040000
0!
0$
#9050000
1!
1$
b100 '
#9060000
0!
0$
#9070000
1!
1$
b101 '
#9080000
0!
0$
#9090000
1!
1$
b110 '
#9100000
0!
0$
#9110000
1!
1$
b111 '
#9120000
0!
0$
#9130000
1!
1$
b1000 '
#9140000
0!
0$
#9150000
1!
1$
b1001 '
#9160000
0!
0$
#9170000
1!
1$
b1010 '
#9180000
0!
0$
#9190000
1!
1$
b1011 '
#9200000
0!
0$
#9210000
1!
1$
b1100 '
#9220000
0!
0$
#9230000
1!
1$
b1101 '
#9240000
0!
0$
#9250000
1!
1$
b0 '
1&
1"
#9260000
0!
0$
#9270000
1!
1$
b1 '
#9280000
0!
0$
#9290000
1!
1$
b10 '
#9300000
0!
0$
#9310000
1!
1$
b11 '
#9320000
0!
0$
#9330000
1!
1$
b100 '
#9340000
0!
0$
#9350000
1!
1$
b101 '
#9360000
0!
0$
#9370000
1!
1$
b110 '
#9380000
0!
0$
#9390000
1!
1$
b111 '
#9400000
0!
0$
#9410000
1!
1$
b1000 '
#9420000
0!
0$
#9430000
1!
1$
b1001 '
#9440000
0!
0$
#9450000
1!
1$
b1010 '
#9460000
0!
0$
#9470000
1!
1$
b1011 '
#9480000
0!
0$
#9490000
1!
1$
b1100 '
#9500000
0!
0$
#9510000
1!
1$
b1101 '
#9520000
0!
0$
#9530000
1!
1$
b0 '
0&
0"
#9540000
0!
0$
#9550000
1!
1$
b1 '
#9560000
0!
0$
#9570000
1!
1$
b10 '
#9580000
0!
0$
#9590000
1!
1$
b11 '
#9600000
0!
0$
#9610000
1!
1$
b100 '
#9620000
0!
0$
#9630000
1!
1$
b101 '
#9640000
0!
0$
#9650000
1!
1$
b110 '
#9660000
0!
0$
#9670000
1!
1$
b111 '
#9680000
0!
0$
#9690000
1!
1$
b1000 '
#9700000
0!
0$
#9710000
1!
1$
b1001 '
#9720000
0!
0$
#9730000
1!
1$
b1010 '
#9740000
0!
0$
#9750000
1!
1$
b1011 '
#9760000
0!
0$
#9770000
1!
1$
b1100 '
#9780000
0!
0$
#9790000
1!
1$
b1101 '
#9800000
0!
0$
#9810000
1!
1$
b0 '
1&
1"
#9820000
0!
0$
#9830000
1!
1$
b1 '
#9840000
0!
0$
#9850000
1!
1$
b10 '
#9860000
0!
0$
#9870000
1!
1$
b11 '
#9880000
0!
0$
#9890000
1!
1$
b100 '
#9900000
0!
0$
#9910000
1!
1$
b101 '
#9920000
0!
0$
#9930000
1!
1$
b110 '
#9940000
0!
0$
#9950000
1!
1$
b111 '
#9960000
0!
0$
#9970000
1!
1$
b1000 '
#9980000
0!
0$
#9990000
1!
1$
b1001 '
